{
    "/js/app.js": "/js/app.js",
    "/css/app-critical.css": "/css/app-critical.css",
    "/css/app.css": "/css/app.css",
    "/js/vendor.js": "/js/vendor.js",
    "/js/manifest.js": "/js/manifest.js"
}
